date,12.shp,14.shp,19.shp,2.shp,22.shp,41.shp,43.shp,47.shp,5.shp,52.shp,53.shp,54.shp,56.shp,57.shp,6.shp,60.shp,64.shp,72.shp,8.shp,80.shp,86.shp,88.shp
2008-05-07,,,,,,,0.209513396,0.2146632075,,0.2176686525,0.2053018063,0.2115213573,0.2060850263,0.2155738175,,,,,,,0.2176686525,0.202539593
2008-05-31,0.3364880085,,0.4446867108,,0.3380776346,0.2966192365,0.2770217955,0.2481295466,0.2360844016,0.2497895658,,,,,0.2324307561,0.2810513675,0.2584878802,0.3416843712,0.2324307561,0.2742007375,0.2497895658,0.2481295466
2008-06-08,0.3129520416,0.2835419774,0.4187799394,0.2103532851,0.3105532229,0.3204043508,0.2440149486,0.2480278909,0.2346609384,0.2319190502,0.2359011918,0.2437142581,0.2371802926,0.2523420751,0.2273902148,0.2637329698,0.2451156229,0.3114389777,0.2273902148,0.2616478801,0.2319190502,0.22946392
2008-06-16,0.3011903167,0.2947121859,,0.2345596403,,0.2821778655,,,0.2403972894,,,,,,0.2233393192,,,,0.2233393192,,,
2008-06-24,0.3065201044,0.2857252955,0.4021942914,0.2088712156,0.3002660275,0.309987396,0.2442870736,0.2253648043,0.2377610207,0.2294852138,0.2177883685,0.2203063965,,,0.2167571485,,,,0.2167571485,,0.2294852138,0.2173368037
2008-07-10,0.3196996748,0.2862398028,0.4056610167,0.2051232457,0.318054527,0.3137688041,0.2377994657,0.2459412515,0.2349956483,0.2298974097,0.2303409725,0.23370938,0.2413693368,0.250202775,0.238540262,0.2502256334,0.2436754406,0.2816616893,0.238540262,0.2505748868,0.2298974097,0.2265768349
2008-07-18,,0.3179209828,0.4157152772,0.2249373198,0.3428694308,,0.2452926189,0.238776207,0.2464276552,0.233532995,0.2370661795,0.2365655005,0.2413060814,0.2570398748,,0.2607963383,0.2566826344,,,,0.233532995,0.229835704
2008-08-03,,0.338598758,0.4577988386,0.2610094845,0.3754535615,,0.2787181437,0.2481632233,0.272773236,0.2421153337,0.2441330254,0.2457272559,0.2363945246,0.2502076328,,0.2798858881,0.2652155459,,,,0.2421153337,0.2364029586
2009-05-10,0.2973488271,0.2712557018,0.4056610167,0.1956006885,0.354097724,0.2767561376,0.2521926463,0.2290014923,0.1993917525,0.2309119403,0.2200622559,0.2244170308,0.2202454656,0.2437128425,0.1865449399,0.2513187528,0.2282714099,0.3070152104,0.1865449399,0.2454002798,0.2309119403,0.213598147
2009-05-18,,0.2804418802,0.4401438534,0.2231371552,0.3428049088,,0.269084841,0.2504420578,0.224401027,0.2384788245,0.2380501926,0.2376110405,0.2270251513,0.2442426085,,0.2686454654,0.2398145944,,,,0.2384788245,0.2314346433
2009-05-26,0.2569079399,0.283185482,0.407607615,0.209715277,0.3068661094,0.2711845934,0.269156456,0.2384185493,0.2124683559,0.2449455261,0.2368258685,0.2432991415,0.2446017265,0.2825706899,0.2089756876,0.2705393732,0.2626560628,0.3183042705,0.2089756876,0.2693443894,0.2449455261,0.2349893451
2009-06-03,,,,,,,,,,,,,,,,,,,,,,
2009-06-11,0.3125921488,0.3207641244,0.443353802,0.2545888126,0.368909657,0.3102578223,0.2892859876,0.2710740566,0.2663310766,0.2577581108,0.2605271339,0.2663205564,0.2691332102,0.2845058143,0.25016433,0.2953958511,0.2876552641,0.3514974713,0.25016433,0.2981231511,0.2577581108,0.2615177035
2009-06-19,0.3219152093,0.3166832924,0.4575885832,0.2502397299,,0.3057283163,0.2821245193,0.2572660148,0.255515337,0.2539136112,0.251636982,0.2511424422,0.2608372867,0.2875364721,0.2610094845,0.2859235704,0.2713972926,0.3438287079,0.2610094845,0.2782694697,0.2539136112,0.2435155064
2009-06-27,0.3216996193,0.3069342375,0.4374072254,0.2402077764,0.3672240973,0.309738934,0.2424466908,0.2510179281,0.2449751347,0.2400284261,0.2396809906,0.2411799729,0.2402207851,0.2627426684,0.2371493727,0.2816957235,0.2625877261,0.318364501,0.2371493727,0.2632349133,0.2400284261,0.2381138951
2009-07-05,0.372100383,0.3417153358,,0.256260097,0.362906158,0.3156147599,,,0.2820584178,,,,0.2644425035,0.3011903167,0.2509177625,0.3162550032,0.2933462262,0.3461010754,0.2509177625,0.3104124367,,
2009-07-13,0.3332977891,0.3093912601,0.4314319193,0.2377994657,0.3635477424,0.2970682085,-0.3075277507,0.2166474462,0.2505900264,-0.3899712861,0.2526052594,0.2557377219,0.2418037653,0.2610918581,0.24123317,0.2804886401,0.2627309859,0.3304433823,0.24123317,0.2668614984,-0.3899712861,-0.3382904232
2009-07-29,0.3402990103,0.3090496063,0.4498109818,0.2440149486,0.379827559,0.3133428693,0.2670098543,0.2415001094,0.2566699982,0.2438948452,0.2428066731,0.2477058172,0.2366361022,0.2642707825,0.2545888126,0.2896034122,0.2655121982,0.3162750304,0.2545888126,0.2667313516,0.2438948452,0.2315086126
2010-05-05,0.3104307354,0.2845521867,,0.1877160072,0.3451739848,0.2331982106,,,0.2176061422,,,,0.2318816483,0.2320651412,0.1941973865,0.2593132257,0.2432336062,0.2848627865,0.1941973865,0.245518297,,
2010-05-13,0.2460036427,0.2380918264,0.3241228163,0.1613326818,0.2789634466,0.2391588539,0.2201104015,0.2092289329,0.1819549501,0.2035712898,0.1986633092,0.1977781355,0.1989856362,0.2153436244,0.165947184,0.2189100385,0.2110386491,0.2548178732,0.165947184,0.2259393185,0.2035712898,0.1973925531
2010-05-21,0.3426975012,0.2908855677,,0.2161612511,0.360384047,0.2687327862,,,0.2257840484,,,,0.2407443672,0.2580040991,0.2239826322,0.2804815471,0.263271749,0.3350193501,0.2239826322,0.268325001,,
2010-05-29,0.3122597039,0.2971411347,0.4312383533,0.2217109948,0.3705044389,0.2659745216,0.2599269152,0.2950442135,0.2311437726,0.2827762067,0.2801888585,0.2803734839,0.2338435948,0.2688748837,0.2304709852,0.2765356004,0.2535730302,0.3169684112,0.2304709852,0.271086663,0.2827762067,0.285682261
2010-06-06,,0.2980482578,0.4483968318,0.2160650343,0.372100383,,0.2614490092,0.2562869191,0.2328132838,0.2553500533,0.2526816428,0.2536946237,0.2332171053,0.2644535303,,0.2726350129,0.2540741563,,,,0.2553500533,0.2466054559
2010-06-14,0.3087479472,0.2951467037,0.4308411777,0.2355653942,0.355217576,0.2352597564,0.0857296884,0.1038848907,0.2295806557,0.0974960625,0.1294737756,0.1236822084,0.1408902556,0.0983164385,0.2290307432,0.1246981993,0.1310712248,0.1657597125,0.2290307432,0.1161715835,0.0974960625,0.1198738143
2010-06-30,0.3402990103,0.3024550676,0.443353802,0.2081558406,0.3764988184,0.2973488271,0.2670098543,0.2275076509,0.2378847301,0.2223706543,0.227639243,0.2242265791,0.2316456139,0.2620677054,0.2250567526,0.260394156,0.2444758117,0.3139200807,0.2250567526,0.2575182319,0.2223706543,0.2162120342
2010-07-08,0.3547742367,0.3227884173,0.4544992447,0.2359656841,,0.3219152093,0.2839735746,0.2488909662,0.2603545487,0.2325958014,0.2461892813,0.2393227071,0.2567745447,0.2852780521,0.2580040991,0.2920024395,0.2733986974,0.3419895172,0.2580040991,0.281047821,0.2325958014,0.2277041823
2010-07-16,0.3157715499,0.315775454,0.4314319193,0.2088712156,0.3411763012,0.3232451081,0.2383845299,0.2187607288,0.2393602133,0.2071668953,0.2219465971,0.2200280726,0.2315078676,0.25016433,0.2304709852,0.2610321939,0.2481957674,0.2978545427,0.2304709852,0.2503617406,0.2071668953,0.2041940093
2011-05-08,0.3072464764,0.2684459984,0.4401438534,0.1964425296,,0.2452926189,0.2225639075,0.189425081,0.2043484747,0.1993781775,0.1863237917,0.1882147342,0.199202776,0.2163620442,0.1955113858,0.2129269391,0.1975995004,0.2674458325,0.1955113858,0.2217579484,0.1993781775,0.18113783
2011-06-09,0.3213174343,0.2784385085,0.4440514147,,0.3579140902,0.2725989819,0.2154593766,0.1909922957,,0.1908588111,0.1787629426,0.1851192862,0.1999701411,,0.2029126138,,,0.2502095997,0.2029126138,,0.1908588111,0.181667015
2011-06-17,0.3006839454,0.259442836,0.401437521,0.1707806438,0.3196996748,0.2749059498,0.1903443038,0.1688804477,0.1884252131,0.1785371304,0.1672257483,0.1665614098,0.1813055277,0.1947290003,0.1758607775,0.1874914169,0.1846803427,0.2451303303,0.1758607775,0.1984516233,0.1785371304,0.1680192649
2011-06-25,0.2987920344,,0.4500914216,0.1790574044,0.3255634606,0.2566284835,,,0.190197289,,,,,0.1966137588,0.1900416613,0.1981924474,0.1904245913,0.2364842296,0.1900416613,0.2160996795,,
2011-07-03,0.1674461067,0.1432412714,0.2154631913,0.122149311,0.2154631913,0.159581095,0.1053166315,0.0661109611,0.1268216819,0.0631432012,0.0862212405,0.0832159892,0.0901500583,0.1748386025,0.1043196544,0.0850326493,0.0749521106,0.0883553326,0.1043196544,0.0998492241,0.0631432012,0.0585328825
2011-07-11,,0.1667915881,0.2342339456,0.1392804533,0.2459445894,,0.1002135202,0.089427568,0.1395331621,0.0946003273,0.1034066379,0.0971537828,0.1055900678,0.1713649333,,0.1116592288,,,,,0.0946003273,0.0946700051
2011-07-19,0.2016456574,0.1596810669,0.2469598502,0.1137408838,0.2324041575,0.1758176684,0.1229805648,0.0876369178,0.1352316737,0.0930773169,0.0837365314,0.0835511833,0.0935411453,0.1695198119,0.1144971773,0.088061057,0.0912964717,0.0989705771,0.1144971773,0.1071350873,0.0930773169,0.0877325758
2011-07-27,0.2291180491,,0.2825704813,,0.2773730457,0.1641850919,,,0.160423249,0.1135267764,,,,,0.1343921423,0.1312724799,0.133169502,0.124223195,0.1343921423,0.1265515983,0.1135267764,
2012-05-10,0.1741594225,0.1716026962,0.1873849928,0.1778627634,0.2094886005,0.1826363504,0.1712435186,0.1645168066,,0.155802995,0.1573265791,0.1598465592,0.160931617,0.1889453679,0.1632839441,,,0.161894083,0.1632839441,,0.155802995,0.1528265625
2012-05-26,0.2644093037,0.2403050065,0.3001566231,0.2094399482,,0.2383936495,0.2094565779,0.190294072,0.2128740996,0.166680485,0.1926460117,0.1912073642,0.18026492,0.2359656841,0.1962665766,0.2039078325,0.1952524483,0.2242556661,0.1962665766,0.1918077469,0.166680485,0.1794890016
2012-06-11,0.2520677149,,0.2875396013,,0.2726649344,0.2163620442,0.1964425296,0.165951401,0.1984488666,0.1612704247,,,,,0.1662467867,0.1803993583,0.1748023927,0.1867274195,0.1662467867,0.1778277159,0.1612704247,0.1607614607
2012-06-27,,0.2173356414,0.2920449972,0.1551555693,0.2904866934,,0.1712435186,0.1533934474,0.1756780446,0.1393853426,0.1566368937,0.1559108496,0.1531015635,0.1837089211,,0.1723643243,0.1597216576,,,,0.1393853426,0.1446816176
2012-07-29,0.2422706187,,0.2871715128,,0.2957655191,0.2099292129,0.1617301106,0.1461188793,,0.1395924836,0.1607108116,0.1582649499,,,0.1658425778,,,0.1760489196,0.1658425778,0.1728084534,0.1395924836,0.1419785768
2013-06-06,0.2010826617,0.1669481993,0.2356838733,0.1328572482,0.2091019899,0.1601215154,0.1345153302,0.1125302687,0.134814918,0.1068824455,0.1145148948,0.1142146587,0.1186973602,0.158240512,0.1281500608,0.1215936244,0.1208835095,0.1276885718,0.1281500608,0.1260104328,0.1068824455,0.105724901
2013-06-22,0.2048520595,0.1701979637,0.2826025784,0.1245029941,0.2430410832,0.1671433449,0.1211162433,0.0978406221,0.1315580457,0.0926321372,0.0997102037,0.0987051502,0.1132937521,0.1666095257,0.1219926775,0.1207437217,0.1182382107,0.1273186207,0.1219926775,0.1239555404,0.0926321372,0.091945976
2013-07-08,0.2267686576,0.1839422286,0.2717596591,0.1366284341,0.2374614477,0.1763485968,0.1535318792,0.122443065,0.1500763148,0.1137697101,0.128868714,0.1249100864,0.1284570098,0.1730421335,0.1395797133,0.1351315379,0.133705169,0.1349214315,0.1395797133,0.1394394487,0.1137697101,0.113686271
2013-07-24,0.2218694687,0.1897752881,0.2893663943,0.1421978325,0.2333464623,0.190326646,,,0.1565479636,,,,0.1176140234,0.1761389375,0.1451681405,0.1305220425,0.1026701629,0.1182203144,0.1451681405,0.1068847552,,
2014-06-01,,0.2195509672,0.3099725842,0.2329970151,0.3138287663,,0.2272389084,0.2206759155,0.240675956,0.2026691139,0.2124209553,0.2167996019,0.2074997574,0.2345596403,,0.2414468676,,,,,0.2026691139,0.2122125626
2014-06-09,0.220357433,0.224874258,0.2954628468,0.2144252062,0.2995139062,0.2617126405,0.2012711614,0.1914217621,0.2270640135,0.1793813407,0.1912478358,0.1941976547,0.1769042611,0.2172995061,0.2145174742,0.220619306,0.2000351995,0.2489821315,0.2145174742,0.2020776421,0.1793813407,0.1860427111
2014-06-25,0.2200595438,0.2329268306,0.3047415912,0.2058364898,0.2987808585,0.2534410059,0.1947265714,0.1798930317,0.2162007391,0.1738245934,0.1875890195,0.1849786341,0.1834279895,0.2385977507,0.1948061734,0.2203641236,0.2036298662,0.2359903157,0.1948061734,0.2067194283,0.1738245934,0.1805056185
2014-07-11,0.2375981063,0.2501638234,0.3203740418,0.2221892625,0.322607547,0.282757163,0.2057829052,0.1926871985,0.233821854,0.1959835142,0.2071111947,0.2078884542,0.2033953369,0.2494708002,0.2112187296,0.2523146868,0.2299963385,0.2608509958,0.2112187296,0.2278606594,0.1959835142,0.2027294189
2014-07-27,0.2557780445,0.2797223926,0.3545188904,0.2409118712,0.3652930856,0.2971824706,0.2443671525,0.2267409861,0.2564280927,0.2220168412,0.2388073504,0.2413200289,0.2279776335,0.280708313,0.226503551,0.2822170258,0.2524093688,0.2959696054,0.226503551,0.2476165593,0.2220168412,0.2257796973
2015-05-11,0.2128469199,0.1855798662,0.2934584618,0.1753343344,0.2627248466,0.1808689982,0.1735901088,0.1523173898,0.1737349927,0.130751282,0.1475054622,0.1526761949,0.1356910467,0.2060517967,0.1573131382,0.1632146835,0.1506200135,0.197550863,0.1573131382,0.1592931151,0.130751282,0.1386932433
2015-05-27,0.2368994206,0.2031257451,0.317551434,0.2008222342,0.27712062,0.2170552164,0.2035707384,0.1828997731,0.2023508996,0.1555066109,0.1788262576,0.1859738231,0.1478413641,0.2262065858,0.1925600916,0.1952813566,0.1772292107,0.2518548667,0.1925600916,0.1896019429,0.1555066109,0.163444221
2015-06-04,,0.2358730435,0.3633033037,0.2405982614,,,0.2402044535,0.2184210569,0.2452005893,0.195590511,0.2188878357,0.2262745351,0.1909320652,0.2604750991,0.2291065454,0.2382076979,0.2239238918,0.2689584792,0.2291065454,0.2317716032,0.195590511,0.2054713219
2015-06-28,0.2557204962,0.2470290363,0.356415838,0.2137721777,0.3205308616,0.265669018,0.2161189765,0.1963380277,0.2237125039,0.1860275567,0.2082656175,0.2105897069,0.1762581766,0.2449628413,0.2173963338,0.234762162,0.214266032,0.2490084469,0.2173963338,0.210938707,0.1860275567,0.190417245
2016-05-29,0.2645426691,0.2115441412,0.3768244684,0.1695112735,0.2727851272,0.2107292712,0.1871425658,0.1697646528,0.1786026061,0.1572004557,0.1738915145,0.1811181307,0.156619519,0.223648712,0.171274662,0.1994929612,0.1739123017,0.2158628702,0.171274662,0.1803725362,0.1572004557,0.1587009728
2016-06-06,0.279402405,0.2356140614,0.3943700492,,0.3175378442,0.2173415422,0.209858045,0.1771655083,,0.1775349975,0.1908697337,0.1897505969,0.1890268326,,0.1965082586,,,0.2330128998,0.1965082586,,0.1775349975,0.1781159937
2016-06-14,0.2636968493,0.2086519897,0.3760079145,0.1608066261,0.2736211717,0.2037505507,0.1812463701,0.1485699117,0.1685051173,0.145279184,0.1607327759,0.1604235917,0.1450451612,0.2147617936,0.1571340412,0.1814081222,0.1627575755,0.1869972199,0.1571340412,0.1694306284,0.145279184,0.1477494538
